656565,Brufen,13.08.2020.,100,brufen,brufen,brufen,valid,9999999999999
212121,Kafetin,25.09.2020.,300,kafetin,kafetin,kafetin,sentForValidation,8888888888888
878787,Lek2,13.08.2020.,100,brufen,brufen,brufen,waiting,9999999999999
090909,Lek3,25.09.2020.,300,kafetin,kafetin,kafetin,valid,8888888888888
